%YAML 1.1
%TAG !u! tag:unity3d.com,2011:
--- !u!114 &11400000
MonoBehaviour:
  m_ObjectHideFlags: 0
  m_PrefabParentObject: {fileID: 0}
  m_PrefabInternal: {fileID: 0}
  m_GameObject: {fileID: 0}
  m_Enabled: 1
  m_EditorHideFlags: 0
  m_Script: {fileID: 11500000, guid: 674d63d10b47747529fe9c404d93b873, type: 3}
  m_Name: BonusManager
  m_EditorClassIdentifier: 
  CoinPrefab: {fileID: 1615090410753694, guid: b1403513cb75d4239aa9638c48460317, type: 2}
  AmmoPrefab: {fileID: 1283481050683022, guid: e255bfd87757f4211b3d90b3db2da5b8, type: 2}
  HealthPrefab: {fileID: 1674063040535258, guid: 4b6b8c88b6587481a9252a35972263e3,
    type: 2}
  BaseAmmoSpawnChance: 10
  BaseHealthSpawnChance: 3
  BaseCoinAverageAmount: 5
  AmmoSecondsDecay: 100
  HealthSecondsDecay: 100
  MinimumAmmoSpawnChance: 5
